{
	"current_page": 1,
	"total_items": 79,
	"total_pages": 16,
	"galleries": [{
		"id": 21270059,
		"privacy": false,
		"kind": 4,
		"items_count": 13,
		"user_id": 14344595,
		"created_at": "2016-01-01T12:16:19-05:00",
		"updated_at": "2016-03-11T07:42:40-05:00",
		"name": "Street",
		"subtitle": null,
		"description": "",
		"view_count": 430,
		"nsfw": false,
		"cover_photo": [{
			"id": 134292399,
			"size": 2,
			"url": "https://drscdn.500px.org/photo/134292399/q%3D50_w%3D140_h%3D140/c7544d64fe659b1e9fb70aabb75fc0f7?v=3",
			"nsfw": false,
			"width": 5657,
			"height": 3771
		}, {
			"id": 134292399,
			"size": 22,
			"url": "https://drscdn.500px.org/photo/134292399/q%3D50_h%3D450/a0f1295380744117af18dc940f6db150",
			"nsfw": false,
			"width": 5657,
			"height": 3771
		}, {
			"id": 134292399,
			"size": 23,
			"url": "https://drscdn.500px.org/photo/134292399/q%3D50_w%3D1000/24f13f03e5d857b1a087778f4c3311c2",
			"nsfw": false,
			"width": 5657,
			"height": 3771
		}, {
			"id": 134292399,
			"size": 24,
			"url": "https://drscdn.500px.org/photo/134292399/q%3D75_w%3D2000/735b49257590d70c59e861298994034a",
			"nsfw": false,
			"width": 5657,
			"height": 3771
		}],
		"user": {
			"id": 14344595,
			"username": "446i",
			"firstname": "Yoshiro",
			"lastname": "Ishii",
			"city": "Tokyo",
			"country": "Japan",
			"usertype": 0,
			"fullname": "Yoshiro Ishii",
			"userpic_url": "https://pacdn.500px.org/14344595/f40e740cedd6ec37bebca314ff505212d8858739/1.jpg?2",
			"userpic_https_url": "https://pacdn.500px.org/14344595/f40e740cedd6ec37bebca314ff505212d8858739/1.jpg?2",
			"cover_url": "https://pacdn.500px.org/14344595/f40e740cedd6ec37bebca314ff505212d8858739/cover_2048.jpg?6",
			"upgrade_status": 0,
			"store_on": false,
			"affection": 4795,
			"followers_count": 243,
			"avatars": {
				"default": {
					"https": "https://pacdn.500px.org/14344595/f40e740cedd6ec37bebca314ff505212d8858739/1.jpg?2"
				},
				"large": {
					"https": "https://pacdn.500px.org/14344595/f40e740cedd6ec37bebca314ff505212d8858739/2.jpg?2"
				},
				"small": {
					"https": "https://pacdn.500px.org/14344595/f40e740cedd6ec37bebca314ff505212d8858739/3.jpg?2"
				},
				"tiny": {
					"https": "https://pacdn.500px.org/14344595/f40e740cedd6ec37bebca314ff505212d8858739/4.jpg?2"
				}
			}
		},
		"custom_path": "cityscape",
		"editors_choice": true
	}, {
		"id": 19478279,
		"privacy": false,
		"kind": 4,
		"items_count": 23,
		"user_id": 14270345,
		"created_at": "2015-10-22T20:50:07-04:00",
		"updated_at": "2016-03-11T07:44:36-05:00",
		"name": "Osaka",
		"subtitle": null,
		"description": "©Takashi Yasui",
		"view_count": 734,
		"nsfw": false,
		"cover_photo": [{
			"id": 127653611,
			"size": 2,
			"url": "https://drscdn.500px.org/photo/127653611/q%3D50_w%3D140_h%3D140/0d456601e4f142a0ba67324feaf82eab?v=3",
			"nsfw": false,
			"width": 4508,
			"height": 3006
		}, {
			"id": 127653611,
			"size": 22,
			"url": "https://drscdn.500px.org/photo/127653611/q%3D50_h%3D450/aa411493556761eb8ecc258523884469",
			"nsfw": false,
			"width": 4508,
			"height": 3006
		}, {
			"id": 127653611,
			"size": 23,
			"url": "https://drscdn.500px.org/photo/127653611/q%3D50_w%3D1000/28e03b8c7c7f7fc703db375546778fae",
			"nsfw": false,
			"width": 4508,
			"height": 3006
		}, {
			"id": 127653611,
			"size": 24,
			"url": "https://drscdn.500px.org/photo/127653611/q%3D75_w%3D2000/2c74a02b4cae27e531bbb9503c1bbeea",
			"nsfw": false,
			"width": 4508,
			"height": 3006
		}],
		"user": {
			"id": 14270345,
			"username": "_tuck4",
			"firstname": "Takashi",
			"lastname": "Yasui",
			"city": "Kyoto",
			"country": "Japan",
			"usertype": 0,
			"fullname": "Takashi Yasui",
			"userpic_url": "https://pacdn.500px.org/14270345/9e8c61a7955ee4c16cfd470ad4553424081ec994/1.jpg?1",
			"userpic_https_url": "https://pacdn.500px.org/14270345/9e8c61a7955ee4c16cfd470ad4553424081ec994/1.jpg?1",
			"cover_url": "https://pacdn.500px.org/14270345/9e8c61a7955ee4c16cfd470ad4553424081ec994/cover_2048.jpg?1",
			"upgrade_status": 1,
			"store_on": true,
			"affection": 240045,
			"followers_count": 73842,
			"avatars": {
				"default": {
					"https": "https://pacdn.500px.org/14270345/9e8c61a7955ee4c16cfd470ad4553424081ec994/1.jpg?1"
				},
				"large": {
					"https": "https://pacdn.500px.org/14270345/9e8c61a7955ee4c16cfd470ad4553424081ec994/2.jpg?1"
				},
				"small": {
					"https": "https://pacdn.500px.org/14270345/9e8c61a7955ee4c16cfd470ad4553424081ec994/3.jpg?1"
				},
				"tiny": {
					"https": "https://pacdn.500px.org/14270345/9e8c61a7955ee4c16cfd470ad4553424081ec994/4.jpg?1"
				}
			}
		},
		"custom_path": "osaka",
		"editors_choice": true
	}, {
		"id": 19432513,
		"privacy": false,
		"kind": 4,
		"items_count": 11,
		"user_id": 11542631,
		"created_at": "2015-04-01T04:04:34-04:00",
		"updated_at": "2016-03-11T06:43:21-05:00",
		"name": "North America",
		"subtitle": null,
		"description": null,
		"view_count": 1005,
		"nsfw": false,
		"cover_photo": [{
			"id": 99113835,
			"size": 2,
			"url": "https://drscdn.500px.org/photo/99113835/q%3D50_w%3D140_h%3D140/58d769c8d8136ee4b42c304ea98f1f9f?v=16",
			"nsfw": false,
			"width": 3500,
			"height": 1413
		}, {
			"id": 99113835,
			"size": 22,
			"url": "https://drscdn.500px.org/photo/99113835/q%3D50_h%3D450/e2afc6a06c4846fec7e4a402a2be802a",
			"nsfw": false,
			"width": 3500,
			"height": 1413
		}, {
			"id": 99113835,
			"size": 23,
			"url": "https://drscdn.500px.org/photo/99113835/q%3D50_w%3D1000/ed086cf5e825337650421cc21570f71c",
			"nsfw": false,
			"width": 3500,
			"height": 1413
		}, {
			"id": 99113835,
			"size": 24,
			"url": "https://drscdn.500px.org/photo/99113835/q%3D75_w%3D2000/8297a04ce52db0722b81579db02f932d",
			"nsfw": false,
			"width": 3500,
			"height": 1413
		}],
		"user": {
			"id": 11542631,
			"username": "AirPano",
			"firstname": "",
			"lastname": "",
			"city": "",
			"country": "",
			"usertype": 0,
			"fullname": "AirPano",
			"userpic_url": "https://pacdn.500px.org/11542631/85401d3890afdb5bc732d536596018e70a40996d/1.jpg?1",
			"userpic_https_url": "https://pacdn.500px.org/11542631/85401d3890afdb5bc732d536596018e70a40996d/1.jpg?1",
			"cover_url": "https://pacdn.500px.org/11542631/85401d3890afdb5bc732d536596018e70a40996d/cover_2048.jpg?4",
			"upgrade_status": 2,
			"store_on": true,
			"affection": 27429,
			"followers_count": 3032,
			"avatars": {
				"default": {
					"https": "https://pacdn.500px.org/11542631/85401d3890afdb5bc732d536596018e70a40996d/1.jpg?1"
				},
				"large": {
					"https": "https://pacdn.500px.org/11542631/85401d3890afdb5bc732d536596018e70a40996d/2.jpg?1"
				},
				"small": {
					"https": "https://pacdn.500px.org/11542631/85401d3890afdb5bc732d536596018e70a40996d/3.jpg?1"
				},
				"tiny": {
					"https": "https://pacdn.500px.org/11542631/85401d3890afdb5bc732d536596018e70a40996d/4.jpg?1"
				}
			}
		},
		"custom_path": "north-ameriaca",
		"editors_choice": true
	}, {
		"id": 21315233,
		"privacy": false,
		"kind": 0,
		"items_count": 34,
		"user_id": 10293639,
		"created_at": "2016-01-06T09:24:57-05:00",
		"updated_at": "2016-03-11T07:39:19-05:00",
		"name": "lifestyle",
		"subtitle": null,
		"description": null,
		"view_count": 826,
		"nsfw": false,
		"cover_photo": [{
			"id": 126942141,
			"size": 2,
			"url": "https://drscdn.500px.org/photo/126942141/q%3D50_w%3D140_h%3D140/3b653d004d6f4940798672a7ccea21a8?v=2",
			"nsfw": false,
			"width": 3000,
			"height": 2000
		}, {
			"id": 126942141,
			"size": 22,
			"url": "https://drscdn.500px.org/photo/126942141/q%3D50_h%3D450/22d0a44bf172a8c7922cf959ab2181ff",
			"nsfw": false,
			"width": 3000,
			"height": 2000
		}, {
			"id": 126942141,
			"size": 23,
			"url": "https://drscdn.500px.org/photo/126942141/q%3D50_w%3D1000/c99ce702c98a359f80f92a4bfb5be521",
			"nsfw": false,
			"width": 3000,
			"height": 2000
		}, {
			"id": 126942141,
			"size": 24,
			"url": "https://drscdn.500px.org/photo/126942141/q%3D75_w%3D2000/f8ea5a091e2f8eecdf9358cabe49fe4a",
			"nsfw": false,
			"width": 3000,
			"height": 2000
		}],
		"user": {
			"id": 10293639,
			"username": "xerkzy_inc",
			"firstname": "Xerkzy",
			"lastname": "",
			"city": "Minneapolis",
			"country": "US",
			"usertype": 0,
			"fullname": "Xerkzy ",
			"userpic_url": "https://pacdn.500px.org/10293639/fd2bd63ef756d83215e489261ee782e65d897551/1.jpg?1",
			"userpic_https_url": "https://pacdn.500px.org/10293639/fd2bd63ef756d83215e489261ee782e65d897551/1.jpg?1",
			"cover_url": "https://pacdn.500px.org/10293639/fd2bd63ef756d83215e489261ee782e65d897551/cover_2048.jpg?3",
			"upgrade_status": 0,
			"store_on": true,
			"affection": 213,
			"followers_count": 41,
			"avatars": {
				"default": {
					"https": "https://pacdn.500px.org/10293639/fd2bd63ef756d83215e489261ee782e65d897551/1.jpg?1"
				},
				"large": {
					"https": "https://pacdn.500px.org/10293639/fd2bd63ef756d83215e489261ee782e65d897551/2.jpg?1"
				},
				"small": {
					"https": "https://pacdn.500px.org/10293639/fd2bd63ef756d83215e489261ee782e65d897551/3.jpg?1"
				},
				"tiny": {
					"https": "https://pacdn.500px.org/10293639/fd2bd63ef756d83215e489261ee782e65d897551/4.jpg?1"
				}
			}
		},
		"custom_path": "lifestyle",
		"editors_choice": true
	}, {
		"id": 22433069,
		"privacy": false,
		"kind": 4,
		"items_count": 22,
		"user_id": 2829741,
		"created_at": "2016-02-09T13:45:13-05:00",
		"updated_at": "2016-03-11T07:42:01-05:00",
		"name": "Abstract Architecture",
		"subtitle": null,
		"description": "",
		"view_count": 803,
		"nsfw": false,
		"cover_photo": [{
			"id": 138883185,
			"size": 2,
			"url": "https://drscdn.500px.org/photo/138883185/q%3D50_w%3D140_h%3D140/c69f6e9172d165c5f47f02695e6f6d10?v=3",
			"nsfw": false,
			"width": 7578,
			"height": 5052
		}, {
			"id": 138883185,
			"size": 22,
			"url": "https://drscdn.500px.org/photo/138883185/q%3D50_h%3D450/551eeff975d8efa8423f138368b7abbb",
			"nsfw": false,
			"width": 7578,
			"height": 5052
		}, {
			"id": 138883185,
			"size": 23,
			"url": "https://drscdn.500px.org/photo/138883185/q%3D50_w%3D1000/1e3b05c6f2dca2b5128ab828c1b1ab17",
			"nsfw": false,
			"width": 7578,
			"height": 5052
		}, {
			"id": 138883185,
			"size": 24,
			"url": "https://drscdn.500px.org/photo/138883185/q%3D75_w%3D2000/88f7063dbb731e3fd00ed335fbf7e61e",
			"nsfw": false,
			"width": 7578,
			"height": 5052
		}],
		"user": {
			"id": 2829741,
			"username": "peterstewartphotography",
			"firstname": "Peter",
			"lastname": "Stewart",
			"city": "Hong Kong",
			"country": "China",
			"usertype": 0,
			"fullname": "Peter Stewart",
			"userpic_url": "https://pacdn.500px.org/2829741/b10c0cf45b6ee06b001a604116de24ff8489d668/1.jpg?16",
			"userpic_https_url": "https://pacdn.500px.org/2829741/b10c0cf45b6ee06b001a604116de24ff8489d668/1.jpg?16",
			"cover_url": "https://pacdn.500px.org/2829741/b10c0cf45b6ee06b001a604116de24ff8489d668/cover_2048.jpg?52",
			"upgrade_status": 2,
			"store_on": true,
			"affection": 120693,
			"followers_count": 10736,
			"avatars": {
				"default": {
					"https": "https://pacdn.500px.org/2829741/b10c0cf45b6ee06b001a604116de24ff8489d668/1.jpg?16"
				},
				"large": {
					"https": "https://pacdn.500px.org/2829741/b10c0cf45b6ee06b001a604116de24ff8489d668/2.jpg?16"
				},
				"small": {
					"https": "https://pacdn.500px.org/2829741/b10c0cf45b6ee06b001a604116de24ff8489d668/3.jpg?16"
				},
				"tiny": {
					"https": "https://pacdn.500px.org/2829741/b10c0cf45b6ee06b001a604116de24ff8489d668/4.jpg?16"
				}
			}
		},
		"custom_path": "abstract-architecture",
		"editors_choice": true
	}]
}